(module solder-jumper-1206-8 (layer F.Cu) (tedit 57642A6A)
  (descr "N.O. jumper/bridge, 1206 with 8 mil gap")
  (tags "solder jumper, solder bridge")
  (fp_text reference SJ* (at 0 -2.54) (layer F.SilkS)
    (effects (font (size 1.016 1.016) (thickness 0.1524)))
  )
  (fp_text value VAL* (at 0 2.54) (layer F.Fab)
    (effects (font (size 1.016 1.016) (thickness 0.1524)))
  )
  (fp_line (start -2.2 -1.2) (end 2.2 -1.2) (layer F.CrtYd) (width 0.05))
  (fp_line (start -2.2 1.2) (end 2.2 1.2) (layer F.CrtYd) (width 0.05))
  (fp_line (start -2.2 -1.2) (end -2.2 1.2) (layer F.CrtYd) (width 0.05))
  (fp_line (start 2.2 -1.2) (end 2.2 1.2) (layer F.CrtYd) (width 0.05))
  (fp_line (start 1 1.075) (end -1 1.075) (layer F.SilkS) (width 0.15))
  (fp_line (start -1 -1.075) (end 1 -1.075) (layer F.SilkS) (width 0.15))
  (pad 1 smd rect (at -1.0008 0) (size 1.7984 1.7) (layers F.Cu F.Mask))
  (pad 2 smd rect (at 1.0008 0) (size 1.7984 1.7) (layers F.Cu F.Mask))
)
