(module DO-41 (layer F.Cu) (tedit 58E9303A)
  (descr "DO-41 through-hole diode, (IPC-7531 hole size, 2x pad size)")
  (tags "diode DO-41 DO41")
  (fp_text reference D*** (at 0 0) (layer F.SilkS)
    (effects (font (thickness 0.1524)))
  )
  (fp_text value DO-41 (at 0 0) (layer F.SilkS) hide
    (effects (font (thickness 0.1524)))
  )
  (fp_line (start 3.302 -1.27) (end 3.302 1.27) (layer F.SilkS) (width 0.3048))
  (fp_line (start 3.556 1.27) (end -3.556 1.27) (layer F.SilkS) (width 0.3048))
  (fp_line (start -3.556 -1.27) (end 3.556 -1.27) (layer F.SilkS) (width 0.3048))
  (fp_line (start 2.54 -1.27) (end 2.54 1.27) (layer F.SilkS) (width 0.3048))
  (fp_line (start 2.794 -1.27) (end 2.794 1.27) (layer F.SilkS) (width 0.3048))
  (fp_line (start 3.048 -1.27) (end 3.048 1.27) (layer F.SilkS) (width 0.3048))
  (fp_line (start 3.556 -1.27) (end 3.556 1.27) (layer F.SilkS) (width 0.3048))
  (fp_line (start -3.556 1.27) (end -3.556 -1.27) (layer F.SilkS) (width 0.3048))
  (pad 2 thru_hole circle (at -5.08 0) (size 2.032 2.032) (drill 1.016) (layers *.Cu *.Mask F.SilkS))
  (pad 1 thru_hole rect (at 5.08 0) (size 2.032 2.032) (drill 1.016) (layers *.Cu *.Mask F.SilkS))
)
