(module ALPS_RK16814MG (layer F.Cu) (tedit 550CEA8C)
  (descr "ALPS RK168 quad motorized potentiometer")
  (tags potentiometer)
  (fp_text reference RV** (at -13 -1) (layer F.SilkS)
    (effects (font (thickness 0.3048)))
  )
  (fp_text value VAL** (at -13 1.5) (layer F.SilkS)
    (effects (font (thickness 0.3048)))
  )
  (fp_line (start 0.25 11.5) (end 0.25 10) (layer F.SilkS) (width 0.1524))
  (fp_line (start 6.5 7.5) (end 0.25 7.5) (layer F.SilkS) (width 0.1524))
  (fp_line (start 6.5 11.5) (end 0.25 11.5) (layer F.SilkS) (width 0.1524))
  (fp_line (start -38 3) (end -40 3) (layer F.SilkS) (width 0.254))
  (fp_line (start -40 3) (end -40 -3) (layer F.SilkS) (width 0.254))
  (fp_line (start -41.75 -12.5) (end -41.75 12.5) (layer F.SilkS) (width 0.254))
  (fp_line (start -41.75 12.5) (end -38 12.5) (layer F.SilkS) (width 0.254))
  (fp_line (start -38 -12.5) (end -41.75 -12.5) (layer F.SilkS) (width 0.254))
  (fp_line (start -38 -3) (end -40 -3) (layer F.SilkS) (width 0.254))
  (fp_line (start 6.5 7.5) (end 6.5 11.5) (layer F.SilkS) (width 0.1524))
  (fp_line (start 7.5 12.5) (end 7.5 -12.5) (layer F.SilkS) (width 0.254))
  (fp_line (start -19.8 11.5) (end -19.8 12.5) (layer F.SilkS) (width 0.254))
  (fp_line (start -19.8 12.5) (end 7.5 12.5) (layer F.SilkS) (width 0.254))
  (fp_line (start -19.8 -11.5) (end -19.8 -12.5) (layer F.SilkS) (width 0.254))
  (fp_line (start -19.8 -12.5) (end 7.5 -12.5) (layer F.SilkS) (width 0.254))
  (fp_line (start -37.9 12.5) (end -37.9 -12.5) (layer F.SilkS) (width 0.254))
  (fp_line (start -20.8 12.5) (end -37.9 12.5) (layer F.SilkS) (width 0.254))
  (fp_line (start -20.8 -12.5) (end -37.9 -12.5) (layer F.SilkS) (width 0.254))
  (fp_line (start -19.8 10.3) (end -19.8 11.5) (layer F.SilkS) (width 0.254))
  (fp_line (start -19.8 -10.3) (end -19.8 -11.5) (layer F.SilkS) (width 0.254))
  (fp_line (start -19.8 11.5) (end -20.8 12.5) (layer F.SilkS) (width 0.254))
  (fp_line (start -19.8 -11.5) (end -20.8 -12.5) (layer F.SilkS) (width 0.254))
  (fp_line (start -19.8 -6.2) (end -19.8 6.2) (layer F.SilkS) (width 0.254))
  (pad 9 thru_hole circle (at -7.5 -8.75) (size 2 2) (drill 1) (layers *.Cu *.Mask F.SilkS))
  (pad 10 thru_hole circle (at -7.5 -6.25) (size 2 2) (drill 1) (layers *.Cu *.Mask F.SilkS))
  (pad 11 thru_hole circle (at -7.5 -3.75) (size 2 2) (drill 1) (layers *.Cu *.Mask F.SilkS))
  (pad 12 thru_hole circle (at -7.5 -1.25) (size 2 2) (drill 1) (layers *.Cu *.Mask F.SilkS))
  (pad 13 thru_hole circle (at -7.5 1.25) (size 2 2) (drill 1) (layers *.Cu *.Mask F.SilkS))
  (pad 14 thru_hole circle (at -7.5 3.75) (size 2 2) (drill 1) (layers *.Cu *.Mask F.SilkS))
  (pad 15 thru_hole circle (at -7.5 6.25) (size 2 2) (drill 1) (layers *.Cu *.Mask F.SilkS))
  (pad 16 thru_hole circle (at -7.5 8.75) (size 2 2) (drill 1) (layers *.Cu *.Mask F.SilkS))
  (pad 8 thru_hole circle (at 0 8.75) (size 2 2) (drill 1) (layers *.Cu *.Mask F.SilkS))
  (pad 7 thru_hole circle (at 0 6.25) (size 2 2) (drill 1) (layers *.Cu *.Mask F.SilkS))
  (pad 6 thru_hole circle (at 0 3.75) (size 2 2) (drill 1) (layers *.Cu *.Mask F.SilkS))
  (pad 5 thru_hole circle (at 0 1.25) (size 2 2) (drill 1) (layers *.Cu *.Mask F.SilkS))
  (pad 4 thru_hole circle (at 0 -1.25) (size 2 2) (drill 1) (layers *.Cu *.Mask F.SilkS))
  (pad 3 thru_hole circle (at 0 -3.75) (size 2 2) (drill 1) (layers *.Cu *.Mask F.SilkS))
  (pad 2 thru_hole circle (at 0 -6.25) (size 2 2) (drill 1) (layers *.Cu *.Mask F.SilkS))
  (pad 1 thru_hole circle (at 0 -8.75) (size 2 2) (drill 1) (layers *.Cu *.Mask F.SilkS))
  (pad 17 thru_hole circle (at -19.8 -8.25) (size 3.6 3.6) (drill 2.6) (layers *.Cu *.Mask F.SilkS))
  (pad 18 thru_hole circle (at -19.8 8.25) (size 3.6 3.6) (drill 2.6) (layers *.Cu *.Mask F.SilkS))
  (pad 19 thru_hole circle (at -40.25 -6) (size 2.2 2.2) (drill 1.1) (layers *.Cu *.Mask F.SilkS))
  (pad 20 thru_hole circle (at -40.25 6) (size 2.2 2.2) (drill 1.1) (layers *.Cu *.Mask F.SilkS))
)
