(module SPPJ226400-PCB-circular (layer F.Cu) (tedit 595D7BB9)
  (descr "ALPS SPPJ226400 mounted to PCB, hole for stem.")
  (fp_text reference SW (at -6.5 3.5) (layer F.SilkS)
    (effects (font (size 1.016 1.016) (thickness 0.2032)))
  )
  (fp_text value Val** (at 6.5 3.5) (layer F.SilkS)
    (effects (font (size 1.016 1.016) (thickness 0.2032)))
  )
  (fp_line (start -8.85 5.5) (end 8.85 5.5) (layer F.CrtYd) (width 0.127))
  (fp_line (start -8.85 -4.1) (end 8.85 -4.1) (layer F.CrtYd) (width 0.127))
  (fp_line (start -8.85 -4.1) (end -8.85 5.5) (layer F.CrtYd) (width 0.127))
  (fp_line (start 8.85 -4.1) (end 8.85 5.5) (layer F.CrtYd) (width 0.127))
  (fp_circle (center 0 0) (end 2 0) (layer F.SilkS) (width 0.254))
  (pad "" np_thru_hole circle (at -6.5 0) (size 2.4 2.4) (drill 2.4) (layers *.Cu))
  (pad "" np_thru_hole circle (at 6.5 0) (size 2.4 2.4) (drill 2.4) (layers *.Cu))
  (pad "" np_thru_hole circle (at 0 0) (size 9.2 9.2) (drill 9.2) (layers *.Cu))
)
