(module large-SIL-2 (layer F.Cu) (tedit 59FBA0B6)
  (descr "2-pin large SIL")
  (tags "CONN SIL")
  (fp_text reference CON** (at 0 -1.651) (layer F.SilkS)
    (effects (font (thickness 0.1524)))
  )
  (fp_text value VAL** (at 0 1.778) (layer F.SilkS)
    (effects (font (thickness 0.1524)))
  )
  (fp_line (start -3.556 -2.794) (end 3.556 -2.794) (layer F.SilkS) (width 0.254))
  (fp_line (start 3.556 -2.794) (end 3.556 2.794) (layer F.SilkS) (width 0.254))
  (fp_line (start 3.556 2.794) (end -3.556 2.794) (layer F.SilkS) (width 0.254))
  (fp_line (start -3.556 2.794) (end -3.556 -2.794) (layer F.SilkS) (width 0.254))
  (fp_line (start -3.683 -2.921) (end 3.683 -2.921) (layer F.CrtYd) (width 0.05))
  (fp_line (start 3.683 -2.921) (end 3.683 2.921) (layer F.CrtYd) (width 0.05))
  (fp_line (start 3.683 2.921) (end -3.683 2.921) (layer F.CrtYd) (width 0.05))
  (fp_line (start -3.683 2.921) (end -3.683 -2.921) (layer F.CrtYd) (width 0.05))
  (pad 1 thru_hole rect (at -1.9812 0) (size 2.8448 5.08) (drill 1.7018) (layers *.Cu *.Mask F.SilkS))
  (pad 2 thru_hole oval (at 1.9812 0) (size 2.8448 5.08) (drill 1.7018) (layers *.Cu *.Mask F.SilkS))
)
