(module SIL-2 (layer F.Cu) (tedit 56CA898D)
  (descr "2-pin SIL")
  (tags "CONN DEV SIL Jumper")
  (fp_text reference Val** (at 0 0) (layer F.SilkS)
    (effects (font (thickness 0.1524)))
  )
  (fp_text value SIL-2 (at 0 0) (layer F.SilkS) hide
    (effects (font (thickness 0.1524)))
  )
  (fp_circle (center -2.5 0) (end -2.75 0) (layer F.SilkS) (width 0.381))
  (fp_line (start -2.54 1.27) (end -2.54 -1.27) (layer F.SilkS) (width 0.254))
  (fp_line (start -2.54 -1.27) (end 2.54 -1.27) (layer F.SilkS) (width 0.254))
  (fp_line (start 2.54 -1.27) (end 2.54 1.27) (layer F.SilkS) (width 0.254))
  (fp_line (start 2.54 1.27) (end -2.54 1.27) (layer F.SilkS) (width 0.254))
  (pad 1 thru_hole rect (at -1.27 0) (size 1.99898 1.99898) (drill 1.09982) (layers *.Cu *.Mask F.SilkS))
  (pad 2 thru_hole circle (at 1.27 0) (size 1.99898 1.99898) (drill 1.09982) (layers *.Cu *.Mask F.SilkS))
  (model Pin_Headers.3dshapes/Pin_Header_Straight_1x02.wrl
    (at (xyz 0 0 0))
    (scale (xyz 1 1 1))
    (rotate (xyz 0 0 0))
  )
)
