(module SIL-6 (layer F.Cu) (tedit 56CA89F0)
  (descr "6-pin SIL")
  (tags "CONN DEV SIL header 6-pin")
  (fp_text reference Val** (at 0 0) (layer F.SilkS)
    (effects (font (thickness 0.127)))
  )
  (fp_text value SIL-6 (at 0 0) (layer F.SilkS) hide
    (effects (font (thickness 0.1524)))
  )
  (fp_line (start -7.62 1.27) (end 7.62 1.27) (layer F.SilkS) (width 0.254))
  (fp_line (start -7.62 -1.27) (end 7.62 -1.27) (layer F.SilkS) (width 0.254))
  (fp_circle (center -7.62 0) (end -7.874 0) (layer F.SilkS) (width 0.381))
  (fp_line (start -7.62 1.27) (end -7.62 -1.27) (layer F.SilkS) (width 0.254))
  (fp_line (start 7.62 -1.27) (end 7.62 1.27) (layer F.SilkS) (width 0.254))
  (pad 1 thru_hole rect (at -6.35 0) (size 1.99898 1.99898) (drill 1.09982) (layers *.Cu *.Mask F.SilkS))
  (pad 3 thru_hole circle (at -1.27 0) (size 1.99898 1.99898) (drill 1.09982) (layers *.Cu *.Mask F.SilkS))
  (pad 4 thru_hole circle (at 1.27 0) (size 1.99898 1.99898) (drill 1.09982) (layers *.Cu *.Mask F.SilkS))
  (pad 2 thru_hole circle (at -3.81 0) (size 1.99898 1.99898) (drill 1.09982) (layers *.Cu *.Mask F.SilkS))
  (pad 5 thru_hole circle (at 3.81 0) (size 1.99898 1.99898) (drill 1.09982) (layers *.Cu *.Mask F.SilkS))
  (pad 6 thru_hole circle (at 6.35 0) (size 1.99898 1.99898) (drill 1.09982) (layers *.Cu *.Mask F.SilkS))
  (model Pin_Headers.3dshapes/Pin_Header_Straight_1x06.wrl
    (at (xyz 0 0 0))
    (scale (xyz 1 1 1))
    (rotate (xyz 0 0 0))
  )
)
