(module TE_1776275-3_largehole (layer F.Cu) (tedit 54CE8427)
  (descr "TE_1776275-3, 0.4mm hole clearance")
  (tags "CONN 3-pin")
  (fp_text reference Val*** (at 0 0) (layer F.SilkS)
    (effects (font (thickness 0.1524)))
  )
  (fp_text value TE_1776275-3_largehole (at 0 0) (layer F.SilkS) hide
    (effects (font (thickness 0.1524)))
  )
  (fp_circle (center -5.4991 0) (end -5.4864 -0.254) (layer F.SilkS) (width 0.254))
  (fp_line (start 5.4991 2.59842) (end -5.4991 2.59842) (layer F.SilkS) (width 0.254))
  (fp_line (start -5.4991 3.59918) (end 5.4991 3.59918) (layer F.SilkS) (width 0.254))
  (fp_line (start -5.4991 -3.40106) (end 5.4991 -3.40106) (layer F.SilkS) (width 0.254))
  (fp_line (start 5.4991 3.59918) (end 5.4991 -3.40106) (layer F.SilkS) (width 0.254))
  (fp_line (start -5.4991 -3.40106) (end -5.4991 3.59918) (layer F.SilkS) (width 0.254))
  (pad 1 thru_hole rect (at -3.50012 0) (size 2.60096 2.60096) (drill 1.30048) (layers *.Cu *.Mask F.SilkS))
  (pad 2 thru_hole circle (at 0 0) (size 2.60096 2.60096) (drill 1.30048) (layers *.Cu *.Mask F.SilkS))
  (pad 3 thru_hole circle (at 3.50012 0) (size 2.60096 2.60096) (drill 1.30048) (layers *.Cu *.Mask F.SilkS))
)
