(module TE_282834-5 (layer F.Cu) (tedit 5A5A7C47)
  (descr TE_282834-5)
  (tags "CONN 5-pin")
  (fp_text reference Val*** (at 0 0) (layer F.SilkS)
    (effects (font (thickness 0.1524)))
  )
  (fp_text value TE_282834-5 (at 0 0) (layer F.SilkS) hide
    (effects (font (thickness 0.1524)))
  )
  (fp_line (start 6.6 2.5) (end -6.6 2.5) (layer F.SilkS) (width 0.254))
  (fp_line (start 6.6 -3.25) (end 6.6 3.25) (layer F.SilkS) (width 0.254))
  (fp_line (start 6.6 3.25) (end -6.6 3.25) (layer F.SilkS) (width 0.254))
  (fp_line (start -6.6 3.25) (end -6.6 -3.25) (layer F.SilkS) (width 0.254))
  (fp_line (start -6.6 -3.25) (end 6.6 -3.25) (layer F.SilkS) (width 0.254))
  (fp_circle (center -6.6 0) (end -6.854 0) (layer F.SilkS) (width 0.254))
  (pad 1 thru_hole circle (at -5.08 0) (size 2.2 2.2) (drill 1.1) (layers *.Cu *.Mask F.SilkS))
  (pad 2 thru_hole circle (at -2.54 0) (size 2.2 2.2) (drill 1.1) (layers *.Cu *.Mask F.SilkS))
  (pad 3 thru_hole circle (at 0 0) (size 2.2 2.2) (drill 1.1) (layers *.Cu *.Mask F.SilkS))
  (pad 4 thru_hole circle (at 2.54 0) (size 2.2 2.2) (drill 1.1) (layers *.Cu *.Mask F.SilkS))
  (pad 5 thru_hole circle (at 5.08 0) (size 2.2 2.2) (drill 1.1) (layers *.Cu *.Mask F.SilkS))
)
