(module C_4.0_2.5_2.5_0.5 (layer F.Cu) (tedit 51887DB7)
  (descr "Non-polar capacitor, 4.0x2.5mm, 2.5mm space, 0.5mm lead")
  (tags "capacitor non-polar bipolar")
  (fp_text reference C*** (at 0 0) (layer F.SilkS)
    (effects (font (thickness 0.1524)))
  )
  (fp_text value C_4.0_2.5_2.5_0.5 (at 0 0) (layer F.SilkS) hide
    (effects (font (thickness 0.1524)))
  )
  (fp_line (start -1.99898 -1.24968) (end -1.99898 -0.7493) (layer F.SilkS) (width 0.254))
  (fp_line (start 1.99898 -1.24968) (end 1.99898 -0.7493) (layer F.SilkS) (width 0.254))
  (fp_line (start -1.99898 1.24968) (end -1.99898 0.7493) (layer F.SilkS) (width 0.254))
  (fp_line (start 1.99898 1.24968) (end 1.99898 0.7493) (layer F.SilkS) (width 0.254))
  (fp_line (start -1.99898 -1.24968) (end 1.99898 -1.24968) (layer F.SilkS) (width 0.254))
  (fp_line (start 1.99898 1.24968) (end -1.99898 1.24968) (layer F.SilkS) (width 0.254))
  (pad 1 thru_hole circle (at -1.24968 0) (size 1.50114 1.50114) (drill 0.70104) (layers *.Cu *.Mask F.SilkS))
  (pad 2 thru_hole circle (at 1.24968 0) (size 1.50114 1.50114) (drill 0.70104) (layers *.Cu *.Mask F.SilkS))
)
