(module CR_12.5_5.0_0.8 (layer F.Cu) (tedit 576FFD86)
  (descr "Radial non-polarized capacitor, 12.5mm dia., 5mm space, 0.8mm lead")
  (tags "capacitor radial non-polar")
  (fp_text reference C*** (at -0.24892 -2.49936) (layer F.SilkS)
    (effects (font (thickness 0.1524)))
  )
  (fp_text value CR_12.5_5.0_0.8 (at 0 2.75082) (layer F.Fab)
    (effects (font (thickness 0.1524)))
  )
  (fp_circle (center 0 0) (end 6.25094 0) (layer F.SilkS) (width 0.254))
  (pad 1 thru_hole circle (at -2.49936 0) (size 2 2) (drill 1) (layers *.Cu *.Mask F.SilkS))
  (pad 2 thru_hole circle (at 2.49936 0) (size 2 2) (drill 1) (layers *.Cu *.Mask F.SilkS))
  (model Capacitors_ThroughHole.3dshapes/C_Radial_D12.5_L25_P5.wrl
    (at (xyz -0.1 0 0))
    (scale (xyz 1 1 1))
    (rotate (xyz 0 0 0))
  )
)
