(module CR_6.3_2.5_0.5 (layer F.Cu) (tedit 54CEE22F)
  (descr "Radial non-polar capacitor, 6.3mm dia., 2.5mm space, 0.5mm lead")
  (tags "capacitor radial non-polar bipolar")
  (fp_text reference C*** (at 0 -0.7493) (layer F.SilkS)
    (effects (font (thickness 0.1524)))
  )
  (fp_text value CR_6.3_2.5_0.5 (at 0 1.99898) (layer F.SilkS) hide
    (effects (font (thickness 0.1524)))
  )
  (fp_circle (center 0 0) (end 3.1496 0.0508) (layer F.SilkS) (width 0.254))
  (pad 1 thru_hole circle (at -1.24968 0) (size 1.50114 1.50114) (drill 0.70104) (layers *.Cu *.Mask F.SilkS))
  (pad 2 thru_hole circle (at 1.24968 0) (size 1.50114 1.50114) (drill 0.70104) (layers *.Cu *.Mask F.SilkS))
)
