(module CRP_5.0_5.0_0.5 (layer F.Cu) (tedit 59F62513)
  (descr "Radial polarized capacitor, 6.3mm dia., 5mm space, 0.5mm lead")
  (tags "capacitor radial polarized")
  (fp_text reference C*** (at 0 -0.7493) (layer F.SilkS)
    (effects (font (thickness 0.1524)))
  )
  (fp_text value CRP_5.0_5.0_0.5 (at 0 1.99898) (layer F.SilkS) hide
    (effects (font (thickness 0.1524)))
  )
  (fp_circle (center 0 0) (end 2.5 0.0508) (layer F.SilkS) (width 0.254))
  (fp_line (start -2.45082 -2.15082) (end -1.95044 -2.15082) (layer F.SilkS) (width 0.254))
  (fp_line (start -2.19936 -2.39974) (end -2.19936 -1.89936) (layer F.SilkS) (width 0.254))
  (pad 1 thru_hole rect (at -2.5 0) (size 1.50114 1.50114) (drill 0.70104) (layers *.Cu *.Mask F.SilkS))
  (pad 2 thru_hole circle (at 2.5 0) (size 1.50114 1.50114) (drill 0.70104) (layers *.Cu *.Mask F.SilkS))
)
