(module SW_PUSH_6x3.5mm (layer F.Cu) (tedit 551470EF)
  (fp_text reference SW_PUSH_6x3.5mm (at 0 -0.762) (layer F.SilkS)
    (effects (font (size 1.016 1.016) (thickness 0.2032)))
  )
  (fp_text value Val** (at 0 1.016) (layer F.SilkS)
    (effects (font (size 1.016 1.016) (thickness 0.2032)))
  )
  (fp_line (start -1.5 -0.75) (end 1.5 -0.75) (layer F.SilkS) (width 0.254))
  (fp_line (start 1.5 -0.75) (end 1.5 0.75) (layer F.SilkS) (width 0.254))
  (fp_line (start 1.5 0.75) (end -1.5 0.75) (layer F.SilkS) (width 0.254))
  (fp_line (start -1.5 0.75) (end -1.5 -0.75) (layer F.SilkS) (width 0.254))
  (fp_line (start -3 -1.75) (end 3 -1.75) (layer F.SilkS) (width 0.254))
  (fp_line (start 3 -1.75) (end 3 1.75) (layer F.SilkS) (width 0.254))
  (fp_line (start 3 1.75) (end -3 1.75) (layer F.SilkS) (width 0.254))
  (fp_line (start -3 1.75) (end -3 -1.75) (layer F.SilkS) (width 0.254))
  (pad 2 thru_hole circle (at 3.25 0) (size 2.6 2.6) (drill 1.3) (layers *.Cu *.Mask F.SilkS))
  (pad 1 thru_hole circle (at -3.25 0) (size 2.6 2.6) (drill 1.3) (layers *.Cu *.Mask F.SilkS))
)
