(module Vishay-TSOP341xx-reverse-horiz (layer F.Cu) (tedit 59DD770A)
  (descr "Vishay TSOP341xx IR module horiz.")
  (tags "Vishay TSOP341xx TSOP343xx TSOP345xx")
  (fp_text reference U*** (at 0 -8.9) (layer F.SilkS)
    (effects (font (thickness 0.1524)))
  )
  (fp_text value TSOP341xx (at 0 -6.2) (layer F.SilkS) hide
    (effects (font (thickness 0.1524)))
  )
  (fp_text user here (at 0 -2.7) (layer B.SilkS)
    (effects (font (size 1 1) (thickness 0.15)) (justify mirror))
  )
  (fp_text user mount (at 0 -4.1) (layer B.SilkS)
    (effects (font (size 1 1) (thickness 0.15)) (justify mirror))
  )
  (fp_line (start -3 -5.2) (end 3 -5.2) (layer B.SilkS) (width 0.254))
  (fp_line (start 3 -10.5) (end 3 -1.5) (layer B.SilkS) (width 0.254))
  (fp_line (start -3 -1.5) (end -3 -10.5) (layer B.SilkS) (width 0.254))
  (fp_line (start -3 -1.5) (end 3 -1.5) (layer B.SilkS) (width 0.254))
  (fp_line (start 3 -10.5) (end -3 -10.5) (layer B.SilkS) (width 0.254))
  (fp_circle (center 0 -7.8) (end 1.8 -9.2) (layer B.SilkS) (width 0.254))
  (fp_text user reverse (at 0 -2.7) (layer F.SilkS)
    (effects (font (size 1 1) (thickness 0.15)))
  )
  (fp_text user mount (at 0 -4.1) (layer F.SilkS)
    (effects (font (size 1 1) (thickness 0.15)))
  )
  (fp_circle (center 0 -7.8) (end 1.8 -9.2) (layer F.SilkS) (width 0.254))
  (fp_line (start -3 -1.5) (end -3 -10.5) (layer F.SilkS) (width 0.254))
  (fp_line (start 3 -10.5) (end 3 -1.5) (layer F.SilkS) (width 0.254))
  (fp_line (start -3 -5.2) (end 3 -5.2) (layer F.SilkS) (width 0.254))
  (fp_line (start -3 -1.5) (end 3 -1.5) (layer F.SilkS) (width 0.254))
  (fp_line (start 3 -10.5) (end -3 -10.5) (layer F.SilkS) (width 0.254))
  (pad "" thru_hole circle (at 3 -10.5) (size 0.508 0.508) (drill 0.254) (layers *.Cu *.Mask F.SilkS))
  (pad 3 thru_hole circle (at -2.54 0) (size 1.8 1.8) (drill 0.9) (layers *.Cu *.Mask F.SilkS))
  (pad 2 thru_hole circle (at 0 0) (size 1.8 1.8) (drill 0.9) (layers *.Cu *.Mask F.SilkS))
  (pad 1 thru_hole circle (at 2.54 0) (size 1.8 1.8) (drill 0.9) (layers *.Cu *.Mask F.SilkS))
  (pad "" thru_hole circle (at -3 -10.5) (size 0.508 0.508) (drill 0.254) (layers *.Cu *.Mask F.SilkS))
)
