(module LED-7.6mm-DIP (layer F.Cu) (tedit 57DF1BE3)
  (descr "LED 7.6mm square DIP")
  (tags "LED 7.6mm square DIP")
  (fp_text reference D** (at 0 1.27) (layer F.SilkS)
    (effects (font (thickness 0.1524)))
  )
  (fp_text value LED (at 0 -1.27) (layer F.Fab)
    (effects (font (thickness 0.1524)))
  )
  (fp_line (start -3.8 -2.9) (end -2.9 -3.8) (layer F.SilkS) (width 0.254))
  (fp_line (start -3.8 -2.9) (end -3.8 3.8) (layer F.SilkS) (width 0.254))
  (fp_line (start -2.9 -3.8) (end 3.8 -3.8) (layer F.SilkS) (width 0.254))
  (fp_line (start 3.9 3.9) (end 3.9 -3.9) (layer F.CrtYd) (width 0.05))
  (fp_line (start 3.9 -3.9) (end -3.9 -3.9) (layer F.CrtYd) (width 0.05))
  (fp_line (start -3.9 -3.9) (end -3.9 3.9) (layer F.CrtYd) (width 0.05))
  (fp_line (start -3.9 3.9) (end 3.9 3.9) (layer F.CrtYd) (width 0.05))
  (fp_line (start 3.8 3.8) (end 3.8 -3.8) (layer F.SilkS) (width 0.254))
  (fp_line (start 3.8 3.8) (end -3.8 3.8) (layer F.SilkS) (width 0.254))
  (pad 1 thru_hole circle (at -2.54 -2.54) (size 2 2) (drill 1) (layers *.Cu *.Mask F.SilkS))
  (pad 2 thru_hole circle (at -2.54 2.54) (size 2 2) (drill 1) (layers *.Cu *.Mask F.SilkS))
  (pad 1 thru_hole circle (at 2.54 -2.54) (size 2 2) (drill 1) (layers *.Cu *.Mask F.SilkS))
  (pad 2 thru_hole circle (at 2.54 2.54) (size 2 2) (drill 1) (layers *.Cu *.Mask F.SilkS))
)
