(module LED-3mm (layer F.Cu) (tedit 56D0EA07)
  (descr "LED 3mm round vertical")
  (tags "LED  3mm round vertical")
  (fp_text reference D** (at 0 1.27) (layer F.SilkS)
    (effects (font (thickness 0.1524)))
  )
  (fp_text value LED (at 0 -1.27) (layer F.Fab)
    (effects (font (thickness 0.1524)))
  )
  (fp_circle (center -1.9 -1.4) (end -1.8 -1.3) (layer F.SilkS) (width 0.3048))
  (fp_line (start -2.47 2.3) (end 2.53 2.3) (layer F.CrtYd) (width 0.05))
  (fp_line (start 2.53 2.3) (end 2.53 -2.2) (layer F.CrtYd) (width 0.05))
  (fp_line (start 2.53 -2.2) (end -2.47 -2.2) (layer F.CrtYd) (width 0.05))
  (fp_line (start -2.47 -2.2) (end -2.47 2.3) (layer F.CrtYd) (width 0.05))
  (fp_line (start -1.469 1.314) (end -1.469 1.114) (layer F.SilkS) (width 0.15))
  (fp_line (start -1.469 -1.28) (end -1.469 -1.1) (layer F.SilkS) (width 0.15))
  (fp_arc (start 0.031 0.034) (end -1.469 -1.286) (angle 108.5) (layer F.SilkS) (width 0.15))
  (fp_arc (start 0.041 0.034) (end 1.781 0.994) (angle 110) (layer F.SilkS) (width 0.15))
  (pad 1 thru_hole rect (at -1.27 0 90) (size 2 2) (drill 1.00076) (layers *.Cu *.Mask F.SilkS))
  (pad 2 thru_hole circle (at 1.27 0) (size 2 2) (drill 1.00076) (layers *.Cu *.Mask F.SilkS))
  (model LEDs.3dshapes/LED-3MM.wrl
    (at (xyz 0 0 0))
    (scale (xyz 1 1 1))
    (rotate (xyz 0 0 90))
  )
)
