(module SSOT-6L (layer F.Cu) (tedit 59EE5DB7)
  (tags "SSOT-6L, SuperSOT-6")
  (attr smd)
  (fp_text reference REF** (at 0 -2.4) (layer F.SilkS)
    (effects (font (size 1.016 1.016) (thickness 0.1524)))
  )
  (fp_text value SSOT-6L (at 0 2.5) (layer F.Fab)
    (effects (font (size 1.016 1.016) (thickness 0.1524)))
  )
  (fp_line (start 0.85 -1.4) (end 0.85 -1.5) (layer F.SilkS) (width 0.12))
  (fp_line (start -0.85 1.5) (end -0.85 1.4) (layer F.SilkS) (width 0.12))
  (fp_line (start 0.85 1.5) (end 0.85 1.4) (layer F.SilkS) (width 0.12))
  (fp_line (start -0.8 1.45) (end -0.8 -0.85) (layer F.Fab) (width 0.1))
  (fp_line (start -1.95 -1.67) (end -1.95 1.67) (layer F.CrtYd) (width 0.05))
  (fp_line (start -1.95 1.67) (end 1.95 1.67) (layer F.CrtYd) (width 0.05))
  (fp_line (start 1.95 1.67) (end 1.95 -1.67) (layer F.CrtYd) (width 0.05))
  (fp_line (start 1.95 -1.67) (end -1.95 -1.67) (layer F.CrtYd) (width 0.05))
  (fp_text user %R (at 0.3 0 180) (layer F.Fab)
    (effects (font (size 0.5 0.5) (thickness 0.05)))
  )
  (fp_line (start -0.2 -1.45) (end 0.8 -1.45) (layer F.Fab) (width 0.1))
  (fp_line (start 0.8 1.45) (end 0.8 -1.45) (layer F.Fab) (width 0.1))
  (fp_line (start -0.8 1.45) (end 0.8 1.45) (layer F.Fab) (width 0.1))
  (fp_line (start -1.75 -1.5) (end 0.85 -1.5) (layer F.SilkS) (width 0.12))
  (fp_line (start -0.85 1.5) (end 0.85 1.5) (layer F.SilkS) (width 0.12))
  (fp_line (start -0.8 -0.85) (end -0.2 -1.45) (layer F.Fab) (width 0.1))
  (pad 1 smd rect (at -1.3 -0.95 90) (size 0.7 1) (layers F.Cu F.Paste F.Mask))
  (pad 2 smd rect (at -1.3 0 90) (size 0.7 1) (layers F.Cu F.Paste F.Mask))
  (pad 3 smd rect (at -1.3 0.95 90) (size 0.7 1) (layers F.Cu F.Paste F.Mask))
  (pad 4 smd rect (at 1.3 0.95 90) (size 0.7 1) (layers F.Cu F.Paste F.Mask))
  (pad 5 smd rect (at 1.3 0 90) (size 0.7 1) (layers F.Cu F.Paste F.Mask))
  (pad 6 smd rect (at 1.3 -0.95 90) (size 0.7 1) (layers F.Cu F.Paste F.Mask))
)
