(module AEC_RJ-255BKPLG-180_reverse (layer F.Cu) (tedit 594DA798)
  (descr "AEC RCA jack")
  (tags RCA)
  (fp_text reference CON** (at 0 -3) (layer F.SilkS)
    (effects (font (thickness 0.1524)))
  )
  (fp_text value VAL** (at 0 3) (layer F.SilkS)
    (effects (font (thickness 0.1524)))
  )
  (fp_line (start -2 5.05) (end 2 5.05) (layer F.SilkS) (width 0.635))
  (fp_line (start 7 6.9) (end 7.75 6.9) (layer F.SilkS) (width 0.254))
  (fp_line (start -7.75 -6.9) (end -7 -6.9) (layer F.SilkS) (width 0.254))
  (fp_line (start -7.75 6.9) (end 3 6.9) (layer F.SilkS) (width 0.254))
  (fp_line (start -3 -6.9) (end 7.75 -6.9) (layer F.SilkS) (width 0.254))
  (fp_line (start -7.75 -6.9) (end -7.75 6.9) (layer F.SilkS) (width 0.254))
  (fp_line (start 7.75 -6.9) (end 7.75 6.9) (layer F.SilkS) (width 0.254))
  (pad "" thru_hole oval (at -5.05 -5.05) (size 4 4) (drill 2) (layers *.Cu *.Mask F.SilkS))
  (pad 1 thru_hole oval (at 0 0) (size 1.75 4) (drill 1) (layers *.Cu *.Mask F.SilkS))
  (pad 2 thru_hole oval (at 2.5 0) (size 1.75 4) (drill 1) (layers *.Cu *.Mask F.SilkS))
  (pad "" thru_hole oval (at 5.05 5.05) (size 4 4) (drill 2) (layers *.Cu *.Mask F.SilkS))
)
