(module R_PANASONIC_ERG_2W_AVA (layer F.Cu) (tedit 518882B1)
  (descr "Panasonic ERG(X) series 2W resistor, larger hole")
  (tags "Panasonic resistor")
  (fp_text reference R*** (at 0 0) (layer F.SilkS)
    (effects (font (thickness 0.1524)))
  )
  (fp_text value R_PANASONIC_ERG_2W_AVA (at 0 0) (layer F.SilkS) hide
    (effects (font (thickness 0.1524)))
  )
  (fp_line (start -5.99948 -1.99898) (end 5.99948 -1.99898) (layer F.SilkS) (width 0.254))
  (fp_line (start 5.99948 -1.99898) (end 5.99948 1.99898) (layer F.SilkS) (width 0.254))
  (fp_line (start 5.99948 1.99898) (end -5.99948 1.99898) (layer F.SilkS) (width 0.254))
  (fp_line (start -5.99948 1.99898) (end -5.99948 -1.99898) (layer F.SilkS) (width 0.254))
  (pad 1 thru_hole circle (at -7.62 0) (size 2.6416 2.6416) (drill 1.3208) (layers *.Cu *.Mask F.SilkS))
  (pad 2 thru_hole circle (at 7.62 0) (size 2.6416 2.6416) (drill 1.3208) (layers *.Cu *.Mask F.SilkS))
)
