(module AVA-18ga-large (layer F.Cu) (tedit 5188875B)
  (descr "18 ga. pad (0.067\" hole, large pad)")
  (tags "18ga 1pin")
  (fp_text reference Pin** (at 0 0) (layer F.SilkS) hide
    (effects (font (thickness 0.1524)))
  )
  (fp_text value AVA-18ga-large (at 0 0) (layer F.SilkS)
    (effects (font (thickness 0.1524)))
  )
  (fp_circle (center 0 0) (end 2.6924 -0.4064) (layer F.SilkS) (width 0.254))
  (pad 1 thru_hole circle (at 0 0) (size 5.08 5.08) (drill 1.7018) (layers *.Cu *.Mask F.SilkS))
)
