(module DO-35_0.30in_cathode_2 (layer F.Cu) (tedit 51887F42)
  (descr "DO-35 through-hole diode (JEDEC '68 spec, 0.3\" pin space, IPC-7531 hole size, +40mil pad size)")
  (tags "diode DO-35 DO35")
  (fp_text reference D*** (at 0 0) (layer F.SilkS)
    (effects (font (thickness 0.1524)))
  )
  (fp_text value DO-35 (at 0 0) (layer F.SilkS) hide
    (effects (font (thickness 0.1524)))
  )
  (fp_line (start 1.651 1.016) (end 1.651 -1.016) (layer F.SilkS) (width 0.254))
  (fp_line (start 2.413 1.016) (end -2.413 1.016) (layer F.SilkS) (width 0.254))
  (fp_line (start 2.413 -1.016) (end -2.413 -1.016) (layer F.SilkS) (width 0.254))
  (fp_line (start 1.778 1.016) (end 1.778 -1.016) (layer F.SilkS) (width 0.254))
  (fp_line (start 1.905 -1.016) (end 1.905 1.016) (layer F.SilkS) (width 0.254))
  (fp_line (start -2.413 1.016) (end -2.413 -1.016) (layer F.SilkS) (width 0.254))
  (fp_line (start 2.413 -1.016) (end 2.413 1.016) (layer F.SilkS) (width 0.254))
  (pad 1 thru_hole circle (at -3.81 0) (size 1.5748 1.5748) (drill 0.762) (layers *.Cu *.Mask F.SilkS))
  (pad 2 thru_hole rect (at 3.81 0) (size 1.5748 1.5748) (drill 0.762) (layers *.Cu *.Mask F.SilkS))
)
