(module DO-35_0.25in_cathode_2 (layer F.Cu) (tedit 51887F11)
  (descr "DO-35 through-hole diode (0.25\" pin space, IPC-7531 hole size, +40mil pad size)")
  (tags "diode DO-35 DO35")
  (fp_text reference D*** (at 0 0) (layer F.SilkS)
    (effects (font (thickness 0.1524)))
  )
  (fp_text value DO-35 (at 0 0) (layer F.SilkS) hide
    (effects (font (thickness 0.1524)))
  )
  (fp_line (start 1.143 1.016) (end 1.143 -1.016) (layer F.SilkS) (width 0.254))
  (fp_line (start -1.905 1.016) (end 1.905 1.016) (layer F.SilkS) (width 0.254))
  (fp_line (start 1.905 -1.016) (end -1.905 -1.016) (layer F.SilkS) (width 0.254))
  (fp_line (start -1.905 -1.016) (end -1.905 1.016) (layer F.SilkS) (width 0.254))
  (fp_line (start 1.016 1.016) (end 1.016 -1.016) (layer F.SilkS) (width 0.254))
  (fp_line (start 1.27 1.016) (end 1.27 -1.016) (layer F.SilkS) (width 0.254))
  (fp_line (start 1.905 -1.016) (end 1.905 1.016) (layer F.SilkS) (width 0.254))
  (pad 1 thru_hole circle (at -3.175 0) (size 1.5748 1.5748) (drill 0.762) (layers *.Cu *.Mask F.SilkS))
  (pad 2 thru_hole rect (at 3.175 0) (size 1.5748 1.5748) (drill 0.762) (layers *.Cu *.Mask F.SilkS))
)
